[04-May-2019 15:54:16 UTC] PHP Fatal error:  Cannot redeclare type_post_property_init() (previously declared in D:\laragon\www\sitewp\wp-content\themes\agency_t\functions.php:124) in D:\laragon\www\sitewp\wp-content\themes\agency_t\functions.php on line 204
[06-May-2019 08:15:38 UTC] PHP Notice:  Undefined variable: meta_keys in D:\laragon\www\sitewp\wp-content\themes\agency_t\inc\class_Adm_Property.php on line 52
[06-May-2019 08:15:38 UTC] PHP Warning:  Invalid argument supplied for foreach() in D:\laragon\www\sitewp\wp-content\themes\agency_t\inc\class_Adm_Property.php on line 52
[06-May-2019 08:48:33 UTC] PHP Notice:  Undefined index: extra_fields_nonce in D:\laragon\www\sitewp\wp-content\themes\agency_t\inc\class_Adm_Property.php on line 91
[06-May-2019 09:58:49 UTC] PHP Notice:  Undefined index: extra_fields_nonce in D:\laragon\www\sitewp\wp-content\themes\agency_t\inc\class_Adm_Property.php on line 85
[06-May-2019 10:16:43 UTC] PHP Notice:  Undefined index: extra_fields_nonce in D:\laragon\www\sitewp\wp-content\themes\agency_t\inc\class_Adm_Property.php on line 85
[06-May-2019 10:17:20 UTC] PHP Notice:  Undefined index: extra_fields_nonce in D:\laragon\www\sitewp\wp-content\themes\agency_t\inc\class_Adm_Property.php on line 85
[06-May-2019 10:17:52 UTC] PHP Notice:  Undefined index: extra_fields_nonce in D:\laragon\www\sitewp\wp-content\themes\agency_t\inc\class_Adm_Property.php on line 85
[06-May-2019 10:18:36 UTC] PHP Notice:  Undefined index: extra_fields_nonce in D:\laragon\www\sitewp\wp-content\themes\agency_t\inc\class_Adm_Property.php on line 85
[06-May-2019 10:19:27 UTC] PHP Notice:  Undefined index: extra_fields_nonce in D:\laragon\www\sitewp\wp-content\themes\agency_t\inc\class_Adm_Property.php on line 85
[06-May-2019 10:22:51 UTC] PHP Notice:  Undefined index: extra_fields_nonce in D:\laragon\www\sitewp\wp-content\themes\agency_t\inc\class_Adm_Property.php on line 85
[06-May-2019 12:02:54 UTC] PHP Fatal error:  Uncaught Error: Undefined class constant 'meta_keys' in D:\laragon\www\sitewp\wp-content\themes\agency_t\front-page.php:231
Stack trace:
#0 D:\laragon\www\sitewp\wp-includes\template-loader.php(77): include()
#1 D:\laragon\www\sitewp\wp-blog-header.php(19): require_once('D:\\laragon\\www\\...')
#2 D:\laragon\www\sitewp\index.php(17): require('D:\\laragon\\www\\...')
#3 {main}
  thrown in D:\laragon\www\sitewp\wp-content\themes\agency_t\front-page.php on line 231
[06-May-2019 12:03:19 UTC] PHP Fatal error:  Uncaught Error: Undefined class constant 'meta_keys' in D:\laragon\www\sitewp\wp-content\themes\agency_t\front-page.php:231
Stack trace:
#0 D:\laragon\www\sitewp\wp-includes\template-loader.php(77): include()
#1 D:\laragon\www\sitewp\wp-blog-header.php(19): require_once('D:\\laragon\\www\\...')
#2 D:\laragon\www\sitewp\index.php(17): require('D:\\laragon\\www\\...')
#3 {main}
  thrown in D:\laragon\www\sitewp\wp-content\themes\agency_t\front-page.php on line 231
[06-May-2019 12:03:48 UTC] PHP Fatal error:  Uncaught Error: Undefined class constant 'meta_keys' in D:\laragon\www\sitewp\wp-content\themes\agency_t\front-page.php:231
Stack trace:
#0 D:\laragon\www\sitewp\wp-includes\template-loader.php(77): include()
#1 D:\laragon\www\sitewp\wp-blog-header.php(19): require_once('D:\\laragon\\www\\...')
#2 D:\laragon\www\sitewp\index.php(17): require('D:\\laragon\\www\\...')
#3 {main}
  thrown in D:\laragon\www\sitewp\wp-content\themes\agency_t\front-page.php on line 231
[07-May-2019 09:42:46 UTC] PHP Warning:  Illegal string offset 'name' in D:\laragon\www\sitewp\wp-content\themes\agency_t\inc\class_Technical_Properties_Metabox.php on line 62
[07-May-2019 09:42:46 UTC] PHP Warning:  Illegal string offset 'value' in D:\laragon\www\sitewp\wp-content\themes\agency_t\inc\class_Technical_Properties_Metabox.php on line 63
[07-May-2019 10:04:33 UTC] PHP Parse error:  syntax error, unexpected '/' in D:\laragon\www\sitewp\wp-content\themes\agency_t\inc\class_Technical_Properties_Metabox.php on line 93
[07-May-2019 10:04:36 UTC] PHP Parse error:  syntax error, unexpected '/' in D:\laragon\www\sitewp\wp-content\themes\agency_t\inc\class_Technical_Properties_Metabox.php on line 93
[07-May-2019 10:04:36 UTC] PHP Parse error:  syntax error, unexpected '/' in D:\laragon\www\sitewp\wp-content\themes\agency_t\inc\class_Technical_Properties_Metabox.php on line 93
[07-May-2019 10:12:37 UTC] PHP Notice:  Undefined index: name in D:\laragon\www\sitewp\wp-content\themes\agency_t\inc\class_Technical_Properties_Metabox.php on line 62
[07-May-2019 10:12:37 UTC] PHP Notice:  Undefined index: value in D:\laragon\www\sitewp\wp-content\themes\agency_t\inc\class_Technical_Properties_Metabox.php on line 63
[07-May-2019 10:12:37 UTC] PHP Notice:  Undefined index: name in D:\laragon\www\sitewp\wp-content\themes\agency_t\inc\class_Technical_Properties_Metabox.php on line 62
[07-May-2019 10:12:37 UTC] PHP Notice:  Undefined index: value in D:\laragon\www\sitewp\wp-content\themes\agency_t\inc\class_Technical_Properties_Metabox.php on line 63
[07-May-2019 10:15:06 UTC] PHP Notice:  Undefined index: name in D:\laragon\www\sitewp\wp-content\themes\agency_t\inc\class_Technical_Properties_Metabox.php on line 63
[07-May-2019 10:15:06 UTC] PHP Notice:  Undefined index: value in D:\laragon\www\sitewp\wp-content\themes\agency_t\inc\class_Technical_Properties_Metabox.php on line 64
[07-May-2019 10:15:06 UTC] PHP Notice:  Undefined index: name in D:\laragon\www\sitewp\wp-content\themes\agency_t\inc\class_Technical_Properties_Metabox.php on line 63
[07-May-2019 10:15:06 UTC] PHP Notice:  Undefined index: value in D:\laragon\www\sitewp\wp-content\themes\agency_t\inc\class_Technical_Properties_Metabox.php on line 64
[07-May-2019 10:17:10 UTC] PHP Notice:  Undefined index: name in D:\laragon\www\sitewp\wp-content\themes\agency_t\inc\class_Technical_Properties_Metabox.php on line 63
[07-May-2019 10:17:10 UTC] PHP Notice:  Undefined index: value in D:\laragon\www\sitewp\wp-content\themes\agency_t\inc\class_Technical_Properties_Metabox.php on line 64
[07-May-2019 10:17:10 UTC] PHP Notice:  Undefined index: name in D:\laragon\www\sitewp\wp-content\themes\agency_t\inc\class_Technical_Properties_Metabox.php on line 63
[07-May-2019 10:17:10 UTC] PHP Notice:  Undefined index: value in D:\laragon\www\sitewp\wp-content\themes\agency_t\inc\class_Technical_Properties_Metabox.php on line 64
[07-May-2019 10:17:17 UTC] PHP Notice:  Undefined index: name in D:\laragon\www\sitewp\wp-content\themes\agency_t\inc\class_Technical_Properties_Metabox.php on line 63
[07-May-2019 10:17:17 UTC] PHP Notice:  Undefined index: value in D:\laragon\www\sitewp\wp-content\themes\agency_t\inc\class_Technical_Properties_Metabox.php on line 64
[07-May-2019 10:17:17 UTC] PHP Notice:  Undefined index: name in D:\laragon\www\sitewp\wp-content\themes\agency_t\inc\class_Technical_Properties_Metabox.php on line 63
[07-May-2019 10:17:17 UTC] PHP Notice:  Undefined index: value in D:\laragon\www\sitewp\wp-content\themes\agency_t\inc\class_Technical_Properties_Metabox.php on line 64
[07-May-2019 10:19:37 UTC] PHP Notice:  Undefined index: name in D:\laragon\www\sitewp\wp-content\themes\agency_t\inc\class_Technical_Properties_Metabox.php on line 63
[07-May-2019 10:19:37 UTC] PHP Notice:  Undefined index: value in D:\laragon\www\sitewp\wp-content\themes\agency_t\inc\class_Technical_Properties_Metabox.php on line 64
[07-May-2019 10:19:37 UTC] PHP Notice:  Undefined index: name in D:\laragon\www\sitewp\wp-content\themes\agency_t\inc\class_Technical_Properties_Metabox.php on line 63
[07-May-2019 10:19:37 UTC] PHP Notice:  Undefined index: value in D:\laragon\www\sitewp\wp-content\themes\agency_t\inc\class_Technical_Properties_Metabox.php on line 64
[07-May-2019 10:20:18 UTC] PHP Notice:  Undefined index: name in D:\laragon\www\sitewp\wp-content\themes\agency_t\inc\class_Technical_Properties_Metabox.php on line 63
[07-May-2019 10:20:18 UTC] PHP Notice:  Undefined index: value in D:\laragon\www\sitewp\wp-content\themes\agency_t\inc\class_Technical_Properties_Metabox.php on line 64
[07-May-2019 10:20:18 UTC] PHP Notice:  Undefined index: name in D:\laragon\www\sitewp\wp-content\themes\agency_t\inc\class_Technical_Properties_Metabox.php on line 63
[07-May-2019 10:20:18 UTC] PHP Notice:  Undefined index: value in D:\laragon\www\sitewp\wp-content\themes\agency_t\inc\class_Technical_Properties_Metabox.php on line 64
[07-May-2019 10:25:06 UTC] PHP Warning:  Illegal string offset 'name' in D:\laragon\www\sitewp\wp-content\themes\agency_t\inc\class_Technical_Properties_Metabox.php on line 63
[07-May-2019 10:25:06 UTC] PHP Warning:  Illegal string offset 'value' in D:\laragon\www\sitewp\wp-content\themes\agency_t\inc\class_Technical_Properties_Metabox.php on line 64
[07-May-2019 10:25:06 UTC] PHP Warning:  Illegal string offset 'name' in D:\laragon\www\sitewp\wp-content\themes\agency_t\inc\class_Technical_Properties_Metabox.php on line 63
[07-May-2019 10:25:06 UTC] PHP Warning:  Illegal string offset 'value' in D:\laragon\www\sitewp\wp-content\themes\agency_t\inc\class_Technical_Properties_Metabox.php on line 64
[07-May-2019 10:25:35 UTC] PHP Warning:  Illegal string offset 'name' in D:\laragon\www\sitewp\wp-content\themes\agency_t\inc\class_Technical_Properties_Metabox.php on line 63
[07-May-2019 10:25:35 UTC] PHP Warning:  Illegal string offset 'value' in D:\laragon\www\sitewp\wp-content\themes\agency_t\inc\class_Technical_Properties_Metabox.php on line 64
[07-May-2019 10:25:35 UTC] PHP Warning:  Illegal string offset 'name' in D:\laragon\www\sitewp\wp-content\themes\agency_t\inc\class_Technical_Properties_Metabox.php on line 63
[07-May-2019 10:25:35 UTC] PHP Warning:  Illegal string offset 'value' in D:\laragon\www\sitewp\wp-content\themes\agency_t\inc\class_Technical_Properties_Metabox.php on line 64
[07-May-2019 10:28:11 UTC] PHP Warning:  Illegal string offset 'name' in D:\laragon\www\sitewp\wp-content\themes\agency_t\inc\class_Technical_Properties_Metabox.php on line 63
[07-May-2019 10:28:11 UTC] PHP Warning:  Illegal string offset 'value' in D:\laragon\www\sitewp\wp-content\themes\agency_t\inc\class_Technical_Properties_Metabox.php on line 64
[07-May-2019 10:28:11 UTC] PHP Warning:  Illegal string offset 'name' in D:\laragon\www\sitewp\wp-content\themes\agency_t\inc\class_Technical_Properties_Metabox.php on line 63
[07-May-2019 10:28:11 UTC] PHP Warning:  Illegal string offset 'value' in D:\laragon\www\sitewp\wp-content\themes\agency_t\inc\class_Technical_Properties_Metabox.php on line 64
[07-May-2019 10:30:36 UTC] PHP Warning:  Illegal string offset 'name' in D:\laragon\www\sitewp\wp-content\themes\agency_t\inc\class_Technical_Properties_Metabox.php on line 65
[07-May-2019 10:30:36 UTC] PHP Warning:  Illegal string offset 'value' in D:\laragon\www\sitewp\wp-content\themes\agency_t\inc\class_Technical_Properties_Metabox.php on line 66
[07-May-2019 10:30:36 UTC] PHP Warning:  Illegal string offset 'name' in D:\laragon\www\sitewp\wp-content\themes\agency_t\inc\class_Technical_Properties_Metabox.php on line 65
[07-May-2019 10:30:36 UTC] PHP Warning:  Illegal string offset 'value' in D:\laragon\www\sitewp\wp-content\themes\agency_t\inc\class_Technical_Properties_Metabox.php on line 66
[07-May-2019 10:55:38 UTC] PHP Notice:  Undefined index: valuetechnical_properties in D:\laragon\www\sitewp\wp-content\themes\agency_t\inc\class_Technical_Properties_Metabox.php on line 104
[07-May-2019 10:55:39 UTC] PHP Notice:  Undefined index: value in D:\laragon\www\sitewp\wp-content\themes\agency_t\inc\class_Technical_Properties_Metabox.php on line 64
[07-May-2019 10:55:45 UTC] PHP Notice:  Undefined index: value in D:\laragon\www\sitewp\wp-content\themes\agency_t\inc\class_Technical_Properties_Metabox.php on line 64
[07-May-2019 10:58:52 UTC] PHP Notice:  Undefined index: value in D:\laragon\www\sitewp\wp-content\themes\agency_t\inc\class_Technical_Properties_Metabox.php on line 64
[07-May-2019 11:51:43 UTC] PHP Notice:  Undefined index: name in D:\laragon\www\sitewp\wp-content\themes\agency_t\inc\class_Technical_Properties_Metabox.php on line 63
[07-May-2019 11:51:43 UTC] PHP Notice:  Undefined index: value in D:\laragon\www\sitewp\wp-content\themes\agency_t\inc\class_Technical_Properties_Metabox.php on line 64
[07-May-2019 11:52:25 UTC] PHP Notice:  Undefined index: name in D:\laragon\www\sitewp\wp-content\themes\agency_t\inc\class_Technical_Properties_Metabox.php on line 63
[07-May-2019 11:52:25 UTC] PHP Notice:  Undefined index: value in D:\laragon\www\sitewp\wp-content\themes\agency_t\inc\class_Technical_Properties_Metabox.php on line 64
[07-May-2019 12:01:53 UTC] PHP Notice:  Array to string conversion in D:\laragon\www\sitewp\wp-includes\formatting.php on line 1111
[07-May-2019 12:01:53 UTC] PHP Notice:  Array to string conversion in D:\laragon\www\sitewp\wp-includes\formatting.php on line 1111
[07-May-2019 12:02:57 UTC] PHP Notice:  Array to string conversion in D:\laragon\www\sitewp\wp-includes\formatting.php on line 1111
[07-May-2019 12:02:57 UTC] PHP Notice:  Array to string conversion in D:\laragon\www\sitewp\wp-includes\formatting.php on line 1111
[07-May-2019 12:05:18 UTC] PHP Notice:  Undefined index: name in D:\laragon\www\sitewp\wp-content\themes\agency_t\inc\class_Technical_Properties_Metabox.php on line 64
[07-May-2019 12:05:18 UTC] PHP Notice:  Undefined index: value in D:\laragon\www\sitewp\wp-content\themes\agency_t\inc\class_Technical_Properties_Metabox.php on line 65
[07-May-2019 12:05:18 UTC] PHP Notice:  Undefined index: name in D:\laragon\www\sitewp\wp-content\themes\agency_t\inc\class_Technical_Properties_Metabox.php on line 64
[07-May-2019 12:05:18 UTC] PHP Notice:  Undefined index: value in D:\laragon\www\sitewp\wp-content\themes\agency_t\inc\class_Technical_Properties_Metabox.php on line 65
[07-May-2019 12:07:07 UTC] PHP Notice:  Undefined index: name in D:\laragon\www\sitewp\wp-content\themes\agency_t\inc\class_Technical_Properties_Metabox.php on line 66
[07-May-2019 12:07:07 UTC] PHP Notice:  Undefined index: value in D:\laragon\www\sitewp\wp-content\themes\agency_t\inc\class_Technical_Properties_Metabox.php on line 67
[07-May-2019 12:07:07 UTC] PHP Notice:  Undefined index: name in D:\laragon\www\sitewp\wp-content\themes\agency_t\inc\class_Technical_Properties_Metabox.php on line 66
[07-May-2019 12:07:07 UTC] PHP Notice:  Undefined index: value in D:\laragon\www\sitewp\wp-content\themes\agency_t\inc\class_Technical_Properties_Metabox.php on line 67
[07-May-2019 12:07:32 UTC] PHP Notice:  Undefined index: name in D:\laragon\www\sitewp\wp-content\themes\agency_t\inc\class_Technical_Properties_Metabox.php on line 66
[07-May-2019 12:07:32 UTC] PHP Notice:  Undefined index: value in D:\laragon\www\sitewp\wp-content\themes\agency_t\inc\class_Technical_Properties_Metabox.php on line 67
[07-May-2019 12:07:32 UTC] PHP Notice:  Undefined index: name in D:\laragon\www\sitewp\wp-content\themes\agency_t\inc\class_Technical_Properties_Metabox.php on line 66
[07-May-2019 12:07:32 UTC] PHP Notice:  Undefined index: value in D:\laragon\www\sitewp\wp-content\themes\agency_t\inc\class_Technical_Properties_Metabox.php on line 67
[07-May-2019 12:11:25 UTC] PHP Notice:  Undefined index: name in D:\laragon\www\sitewp\wp-content\themes\agency_t\inc\class_Technical_Properties_Metabox.php on line 66
[07-May-2019 12:11:25 UTC] PHP Notice:  Undefined index: value in D:\laragon\www\sitewp\wp-content\themes\agency_t\inc\class_Technical_Properties_Metabox.php on line 67
[07-May-2019 12:11:25 UTC] PHP Notice:  Undefined index: name in D:\laragon\www\sitewp\wp-content\themes\agency_t\inc\class_Technical_Properties_Metabox.php on line 66
[07-May-2019 12:11:25 UTC] PHP Notice:  Undefined index: value in D:\laragon\www\sitewp\wp-content\themes\agency_t\inc\class_Technical_Properties_Metabox.php on line 67
[07-May-2019 12:14:12 UTC] PHP Notice:  Undefined index: name in D:\laragon\www\sitewp\wp-content\themes\agency_t\inc\class_Technical_Properties_Metabox.php on line 66
[07-May-2019 12:14:12 UTC] PHP Notice:  Undefined index: value in D:\laragon\www\sitewp\wp-content\themes\agency_t\inc\class_Technical_Properties_Metabox.php on line 67
[07-May-2019 12:14:12 UTC] PHP Notice:  Undefined index: name in D:\laragon\www\sitewp\wp-content\themes\agency_t\inc\class_Technical_Properties_Metabox.php on line 66
[07-May-2019 12:14:12 UTC] PHP Notice:  Undefined index: value in D:\laragon\www\sitewp\wp-content\themes\agency_t\inc\class_Technical_Properties_Metabox.php on line 67
[07-May-2019 12:15:53 UTC] PHP Notice:  Undefined index: name in D:\laragon\www\sitewp\wp-content\themes\agency_t\inc\class_Technical_Properties_Metabox.php on line 66
[07-May-2019 12:15:53 UTC] PHP Notice:  Undefined index: value in D:\laragon\www\sitewp\wp-content\themes\agency_t\inc\class_Technical_Properties_Metabox.php on line 67
[07-May-2019 12:15:53 UTC] PHP Notice:  Undefined index: name in D:\laragon\www\sitewp\wp-content\themes\agency_t\inc\class_Technical_Properties_Metabox.php on line 66
[07-May-2019 12:15:53 UTC] PHP Notice:  Undefined index: value in D:\laragon\www\sitewp\wp-content\themes\agency_t\inc\class_Technical_Properties_Metabox.php on line 67
[07-May-2019 12:17:21 UTC] PHP Notice:  Undefined index: name in D:\laragon\www\sitewp\wp-content\themes\agency_t\inc\class_Technical_Properties_Metabox.php on line 66
[07-May-2019 12:17:21 UTC] PHP Notice:  Undefined index: value in D:\laragon\www\sitewp\wp-content\themes\agency_t\inc\class_Technical_Properties_Metabox.php on line 67
[07-May-2019 12:17:21 UTC] PHP Notice:  Undefined index: name in D:\laragon\www\sitewp\wp-content\themes\agency_t\inc\class_Technical_Properties_Metabox.php on line 66
[07-May-2019 12:17:21 UTC] PHP Notice:  Undefined index: value in D:\laragon\www\sitewp\wp-content\themes\agency_t\inc\class_Technical_Properties_Metabox.php on line 67
[07-May-2019 12:18:11 UTC] PHP Notice:  Undefined index: name in D:\laragon\www\sitewp\wp-content\themes\agency_t\inc\class_Technical_Properties_Metabox.php on line 66
[07-May-2019 12:18:11 UTC] PHP Notice:  Undefined index: value in D:\laragon\www\sitewp\wp-content\themes\agency_t\inc\class_Technical_Properties_Metabox.php on line 67
[07-May-2019 12:18:11 UTC] PHP Notice:  Undefined index: name in D:\laragon\www\sitewp\wp-content\themes\agency_t\inc\class_Technical_Properties_Metabox.php on line 66
[07-May-2019 12:18:11 UTC] PHP Notice:  Undefined index: value in D:\laragon\www\sitewp\wp-content\themes\agency_t\inc\class_Technical_Properties_Metabox.php on line 67
[07-May-2019 12:18:47 UTC] PHP Notice:  Undefined index: name in D:\laragon\www\sitewp\wp-content\themes\agency_t\inc\class_Technical_Properties_Metabox.php on line 66
[07-May-2019 12:18:47 UTC] PHP Notice:  Undefined index: value in D:\laragon\www\sitewp\wp-content\themes\agency_t\inc\class_Technical_Properties_Metabox.php on line 67
[07-May-2019 12:18:47 UTC] PHP Notice:  Undefined index: name in D:\laragon\www\sitewp\wp-content\themes\agency_t\inc\class_Technical_Properties_Metabox.php on line 66
[07-May-2019 12:18:47 UTC] PHP Notice:  Undefined index: value in D:\laragon\www\sitewp\wp-content\themes\agency_t\inc\class_Technical_Properties_Metabox.php on line 67
[07-May-2019 12:19:01 UTC] PHP Notice:  Undefined index: name in D:\laragon\www\sitewp\wp-content\themes\agency_t\inc\class_Technical_Properties_Metabox.php on line 66
[07-May-2019 12:19:01 UTC] PHP Notice:  Undefined index: value in D:\laragon\www\sitewp\wp-content\themes\agency_t\inc\class_Technical_Properties_Metabox.php on line 67
[07-May-2019 12:19:01 UTC] PHP Notice:  Undefined index: name in D:\laragon\www\sitewp\wp-content\themes\agency_t\inc\class_Technical_Properties_Metabox.php on line 66
[07-May-2019 12:19:01 UTC] PHP Notice:  Undefined index: value in D:\laragon\www\sitewp\wp-content\themes\agency_t\inc\class_Technical_Properties_Metabox.php on line 67
[07-May-2019 12:24:22 UTC] PHP Notice:  Undefined index: name in D:\laragon\www\sitewp\wp-content\themes\agency_t\inc\class_Technical_Properties_Metabox.php on line 72
[07-May-2019 12:24:22 UTC] PHP Notice:  Undefined index: value in D:\laragon\www\sitewp\wp-content\themes\agency_t\inc\class_Technical_Properties_Metabox.php on line 73
[07-May-2019 12:24:22 UTC] PHP Notice:  Undefined index: name in D:\laragon\www\sitewp\wp-content\themes\agency_t\inc\class_Technical_Properties_Metabox.php on line 72
[07-May-2019 12:24:22 UTC] PHP Notice:  Undefined index: value in D:\laragon\www\sitewp\wp-content\themes\agency_t\inc\class_Technical_Properties_Metabox.php on line 73
[07-May-2019 12:24:52 UTC] PHP Notice:  Undefined index: name in D:\laragon\www\sitewp\wp-content\themes\agency_t\inc\class_Technical_Properties_Metabox.php on line 72
[07-May-2019 12:24:52 UTC] PHP Notice:  Undefined index: value in D:\laragon\www\sitewp\wp-content\themes\agency_t\inc\class_Technical_Properties_Metabox.php on line 73
[07-May-2019 12:24:52 UTC] PHP Notice:  Undefined index: name in D:\laragon\www\sitewp\wp-content\themes\agency_t\inc\class_Technical_Properties_Metabox.php on line 72
[07-May-2019 12:24:52 UTC] PHP Notice:  Undefined index: value in D:\laragon\www\sitewp\wp-content\themes\agency_t\inc\class_Technical_Properties_Metabox.php on line 73
[07-May-2019 12:41:06 UTC] PHP Warning:  Invalid argument supplied for foreach() in D:\laragon\www\sitewp\wp-content\themes\agency_t\inc\class_Technical_Properties_Metabox.php on line 68
[07-May-2019 12:41:06 UTC] PHP Warning:  Invalid argument supplied for foreach() in D:\laragon\www\sitewp\wp-content\themes\agency_t\inc\class_Technical_Properties_Metabox.php on line 68
[07-May-2019 13:00:05 UTC] PHP Parse error:  syntax error, unexpected 'foreach' (T_FOREACH) in D:\laragon\www\sitewp\wp-content\themes\agency_t\inc\class_Technical_Properties_Metabox.php on line 69
[07-May-2019 13:00:07 UTC] PHP Parse error:  syntax error, unexpected 'foreach' (T_FOREACH) in D:\laragon\www\sitewp\wp-content\themes\agency_t\inc\class_Technical_Properties_Metabox.php on line 69
[07-May-2019 13:00:07 UTC] PHP Parse error:  syntax error, unexpected 'foreach' (T_FOREACH) in D:\laragon\www\sitewp\wp-content\themes\agency_t\inc\class_Technical_Properties_Metabox.php on line 69
[07-May-2019 13:04:56 UTC] PHP Parse error:  syntax error, unexpected ')' in D:\laragon\www\sitewp\wp-content\themes\agency_t\inc\class_Technical_Properties_Metabox.php on line 70
[07-May-2019 13:05:01 UTC] PHP Parse error:  syntax error, unexpected ')' in D:\laragon\www\sitewp\wp-content\themes\agency_t\inc\class_Technical_Properties_Metabox.php on line 70
[07-May-2019 13:05:02 UTC] PHP Parse error:  syntax error, unexpected ')' in D:\laragon\www\sitewp\wp-content\themes\agency_t\inc\class_Technical_Properties_Metabox.php on line 70
[07-May-2019 13:05:32 UTC] PHP Warning:  Use of undefined constant i - assumed 'i' (this will throw an Error in a future version of PHP) in D:\laragon\www\sitewp\wp-content\themes\agency_t\inc\class_Technical_Properties_Metabox.php on line 69
[07-May-2019 13:05:32 UTC] PHP Notice:  Undefined index: i in D:\laragon\www\sitewp\wp-content\themes\agency_t\inc\class_Technical_Properties_Metabox.php on line 69
[07-May-2019 13:05:32 UTC] PHP Warning:  Use of undefined constant i - assumed 'i' (this will throw an Error in a future version of PHP) in D:\laragon\www\sitewp\wp-content\themes\agency_t\inc\class_Technical_Properties_Metabox.php on line 70
[07-May-2019 13:05:32 UTC] PHP Notice:  Undefined index: i in D:\laragon\www\sitewp\wp-content\themes\agency_t\inc\class_Technical_Properties_Metabox.php on line 70
[07-May-2019 13:05:32 UTC] PHP Warning:  Use of undefined constant i - assumed 'i' (this will throw an Error in a future version of PHP) in D:\laragon\www\sitewp\wp-content\themes\agency_t\inc\class_Technical_Properties_Metabox.php on line 69
[07-May-2019 13:05:32 UTC] PHP Notice:  Undefined index: i in D:\laragon\www\sitewp\wp-content\themes\agency_t\inc\class_Technical_Properties_Metabox.php on line 69
[07-May-2019 13:05:32 UTC] PHP Warning:  Use of undefined constant i - assumed 'i' (this will throw an Error in a future version of PHP) in D:\laragon\www\sitewp\wp-content\themes\agency_t\inc\class_Technical_Properties_Metabox.php on line 70
[07-May-2019 13:05:32 UTC] PHP Notice:  Undefined index: i in D:\laragon\www\sitewp\wp-content\themes\agency_t\inc\class_Technical_Properties_Metabox.php on line 70
[07-May-2019 13:18:24 UTC] PHP Notice:  Array to string conversion in D:\laragon\www\sitewp\wp-includes\formatting.php on line 1111
[07-May-2019 13:18:24 UTC] PHP Notice:  Array to string conversion in D:\laragon\www\sitewp\wp-includes\formatting.php on line 1111
[07-May-2019 13:18:24 UTC] PHP Notice:  Array to string conversion in D:\laragon\www\sitewp\wp-includes\formatting.php on line 1111
[07-May-2019 13:18:24 UTC] PHP Notice:  Array to string conversion in D:\laragon\www\sitewp\wp-includes\formatting.php on line 1111
[14-May-2019 13:47:30 UTC] PHP Fatal error:  Uncaught Error: Call to undefined function __e() in D:\laragon\www\sitewp\wp-content\themes\alstar_theme\front-page.php:501
Stack trace:
#0 D:\laragon\www\sitewp\wp-includes\template-loader.php(78): include()
#1 D:\laragon\www\sitewp\wp-blog-header.php(19): require_once('D:\\laragon\\www\\...')
#2 D:\laragon\www\sitewp\index.php(17): require('D:\\laragon\\www\\...')
#3 {main}
  thrown in D:\laragon\www\sitewp\wp-content\themes\alstar_theme\front-page.php on line 501
[14-May-2019 13:47:56 UTC] PHP Fatal error:  Uncaught Error: Call to undefined function __e() in D:\laragon\www\sitewp\wp-content\themes\alstar_theme\front-page.php:501
Stack trace:
#0 D:\laragon\www\sitewp\wp-includes\template-loader.php(78): include()
#1 D:\laragon\www\sitewp\wp-blog-header.php(19): require_once('D:\\laragon\\www\\...')
#2 D:\laragon\www\sitewp\index.php(17): require('D:\\laragon\\www\\...')
#3 {main}
  thrown in D:\laragon\www\sitewp\wp-content\themes\alstar_theme\front-page.php on line 501
[15-May-2019 06:35:49 UTC] PHP Fatal error:  Uncaught Error: Cannot use object of type WP_Post as array in D:\laragon\www\sitewp\wp-content\themes\alstar_theme\functions.php:267
Stack trace:
#0 D:\laragon\www\sitewp\wp-includes\class-wp-hook.php(286): filter_function_main_menu(Array, Object(WP_Post), Object(stdClass), 0)
#1 D:\laragon\www\sitewp\wp-includes\plugin.php(208): WP_Hook->apply_filters(Array, Array)
#2 D:\laragon\www\sitewp\wp-includes\class-walker-nav-menu.php(202): apply_filters('nav_menu_link_a...', Array, Object(WP_Post), Object(stdClass), 0)
#3 D:\laragon\www\sitewp\wp-includes\class-wp-walker.php(145): Walker_Nav_Menu->start_el('<li id="menu-it...', Object(WP_Post), 0, Object(stdClass))
#4 D:\laragon\www\sitewp\wp-includes\class-wp-walker.php(246): Walker->display_element(Object(WP_Post), Array, 0, 0, Array, '<li id="menu-it...')
#5 D:\laragon\www\sitewp\wp-includes\nav-menu-template.php(580): Walker->walk(Array, 0, Object(stdClass))
#6 D:\laragon\www\sitewp\wp-includes\nav-menu-template.php(213): walk_nav_menu_tree(Array, 0, Object(std in D:\laragon\www\sitewp\wp-content\themes\alstar_theme\functions.php on line 267
[15-May-2019 06:36:52 UTC] PHP Fatal error:  Uncaught Error: Cannot use object of type WP_Post as array in D:\laragon\www\sitewp\wp-content\themes\alstar_theme\functions.php:268
Stack trace:
#0 D:\laragon\www\sitewp\wp-includes\class-wp-hook.php(286): filter_function_main_menu(Array, Object(WP_Post), Object(stdClass), 0)
#1 D:\laragon\www\sitewp\wp-includes\plugin.php(208): WP_Hook->apply_filters(Array, Array)
#2 D:\laragon\www\sitewp\wp-includes\class-walker-nav-menu.php(202): apply_filters('nav_menu_link_a...', Array, Object(WP_Post), Object(stdClass), 0)
#3 D:\laragon\www\sitewp\wp-includes\class-wp-walker.php(145): Walker_Nav_Menu->start_el('<li id="menu-it...', Object(WP_Post), 0, Object(stdClass))
#4 D:\laragon\www\sitewp\wp-includes\class-wp-walker.php(246): Walker->display_element(Object(WP_Post), Array, 0, 0, Array, '<li id="menu-it...')
#5 D:\laragon\www\sitewp\wp-includes\nav-menu-template.php(580): Walker->walk(Array, 0, Object(stdClass))
#6 D:\laragon\www\sitewp\wp-includes\nav-menu-template.php(213): walk_nav_menu_tree(Array, 0, Object(std in D:\laragon\www\sitewp\wp-content\themes\alstar_theme\functions.php on line 268
[15-May-2019 06:44:47 UTC] PHP Fatal error:  Uncaught Error: Cannot use object of type WP_Post as array in D:\laragon\www\sitewp\wp-content\themes\alstar_theme\functions.php:268
Stack trace:
#0 D:\laragon\www\sitewp\wp-includes\class-wp-hook.php(286): filter_function_main_menu(Array, Object(WP_Post), Object(stdClass), 0)
#1 D:\laragon\www\sitewp\wp-includes\plugin.php(208): WP_Hook->apply_filters(Array, Array)
#2 D:\laragon\www\sitewp\wp-includes\class-walker-nav-menu.php(202): apply_filters('nav_menu_link_a...', Array, Object(WP_Post), Object(stdClass), 0)
#3 D:\laragon\www\sitewp\wp-includes\class-wp-walker.php(145): Walker_Nav_Menu->start_el('<li id="menu-it...', Object(WP_Post), 0, Object(stdClass))
#4 D:\laragon\www\sitewp\wp-includes\class-wp-walker.php(246): Walker->display_element(Object(WP_Post), Array, 0, 0, Array, '<li id="menu-it...')
#5 D:\laragon\www\sitewp\wp-includes\nav-menu-template.php(580): Walker->walk(Array, 0, Object(stdClass))
#6 D:\laragon\www\sitewp\wp-includes\nav-menu-template.php(213): walk_nav_menu_tree(Array, 0, Object(std in D:\laragon\www\sitewp\wp-content\themes\alstar_theme\functions.php on line 268
[15-May-2019 09:33:21 UTC] PHP Notice:  Undefined variable: new_str in D:\laragon\www\sitewp\wp-content\themes\alstar_theme\functions.php on line 298
